…
```r
btex_parameters
```

```
## # A tibble: 28 x 5
##    enclosure compound   kot   kow   kwt
##    <chr>     <chr>    <dbl> <dbl> <dbl>
##  1 M1        Benzene   30.2 0.246 0.216
##  2 M2        Benzene   31.1 0.142 0.230
##  3 M3        Benzene   29.8 0.213 0.246
##  4 M5        Benzene   32.9 0.177 0.202
##  5 M6        Benzene   30.5 0.140 0.187
##  6 M7        Benzene   28.6 0.200 0.195
##  7 M8        Benzene   33.1 0.213 0.223
##  8 M1        Toluene   25.5 0.207 0.267
##  9 M2        Toluene   19.0 0.236 0.193
## 10 M3        Toluene   22.4 0.241 0.279
## # … with 18 more rows
```
…
```
## Joining, by = "compound"
```

```r
data
```

```
## # A tibble: 28 x 5
## # Groups:   enclosure, compound [28]
##    enclosure compound parameters       initial          time         
##    <chr>     <chr>    <list>           <list>           <list>       
##  1 M1        Benzene  <tibble [1 × 3]> <tibble [1 × 2]> <dbl [1,000]>
##  2 M2        Benzene  <tibble [1 × 3]> <tibble [1 × 2]> <dbl [1,000]>
##  3 M3        Benzene  <tibble [1 × 3]> <tibble [1 × 2]> <dbl [1,000]>
##  4 M5        Benzene  <tibble [1 × 3]> <tibble [1 × 2]> <dbl [1,000]>
##  5 M6        Benzene  <tibble [1 × 3]> <tibble [1 × 2]> <dbl [1,000]>
##  6 M7        Benzene  <tibble [1 × 3]> <tibble [1 × 2]> <dbl [1,000]>
##  7 M8        Benzene  <tibble [1 × 3]> <tibble [1 × 2]> <dbl [1,000]>
##  8 M1        Toluene  <tibble [1 × 3]> <tibble [1 × 2]> <dbl [1,000]>
##  9 M2        Toluene  <tibble [1 × 3]> <tibble [1 × 2]> <dbl [1,000]>
## 10 M3        Toluene  <tibble [1 × 3]> <tibble [1 × 2]> <dbl [1,000]>
## # … with 18 more rows
```
…
Now that we have a large dataset where we have the individual datasets for parameters and initial values for each compound/enclosure combination, we can just use `pmap()` to run the `ode()` on each set. Here we also transform it into a tibble, but i had to go through a data.frame first because there was some atribute embedded in the output format of the ode() that made tibble trip.


```r
results <- data %>% 
  mutate(output = pmap(list(parameters, initial, time),
                       ~ ode(y = unlist(..2), times = ..3, func = oil_water_function, parms = unlist(..1)) %>% 
                         as.data.frame %>% 
                         as_tibble))

results
```

```
## # A tibble: 28 x 6
## # Groups:   enclosure, compound [28]
##    enclosure compound parameters      initial        time       output          
##    <chr>     <chr>    <list>          <list>         <list>     <list>          
##  1 M1        Benzene  <tibble [1 × 3… <tibble [1 × … <dbl [1,0… <tibble [1,000 …
##  2 M2        Benzene  <tibble [1 × 3… <tibble [1 × … <dbl [1,0… <tibble [1,000 …
##  3 M3        Benzene  <tibble [1 × 3… <tibble [1 × … <dbl [1,0… <tibble [1,000 …
##  4 M5        Benzene  <tibble [1 × 3… <tibble [1 × … <dbl [1,0… <tibble [1,000 …
##  5 M6        Benzene  <tibble [1 × 3… <tibble [1 × … <dbl [1,0… <tibble [1,000 …
##  6 M7        Benzene  <tibble [1 × 3… <tibble [1 × … <dbl [1,0… <tibble [1,000 …
##  7 M8        Benzene  <tibble [1 × 3… <tibble [1 × … <dbl [1,0… <tibble [1,000 …
##  8 M1        Toluene  <tibble [1 × 3… <tibble [1 × … <dbl [1,0… <tibble [1,000 …
##  9 M2        Toluene  <tibble [1 × 3… <tibble [1 × … <dbl [1,0… <tibble [1,000 …
## 10 M3        Toluene  <tibble [1 × 3… <tibble [1 × … <dbl [1,0… <tibble [1,000 …
## # … with 18 more rows
```

You can check the output of one of them 


```r
results$output[[1]]
```

```
## # A tibble: 1,000 x 3
##       time   oil water
##      <dbl> <dbl> <dbl>
##  1 0       1465   0   
##  2 0.00400 1298.  1.36
##  3 0.00801 1150.  2.56
##  4 0.0120  1019.  3.63
##  5 0.0160   903.  4.57
##  6 0.0200   800.  5.40
##  7 0.0240   708.  6.14
##  8 0.0280   628.  6.79
##  9 0.0320   556.  7.37
## 10 0.0360   493.  7.87
## # … with 990 more rows
```
Now we un-nest it to make it easy to use inn ggplot (unless you want to make individual plots, in qich case you might want to keep nested and use `pmap()` again, but in this case to creat the plots)


```r
results_unnested <- results %>% 
  select(-parameters, -initial, -time) %>% 
  unnest(cols = c(output))


results_unnested
```

```
## # A tibble: 28,000 x 5
## # Groups:   enclosure, compound [28]
##    enclosure compound    time   oil water
##    <chr>     <chr>      <dbl> <dbl> <dbl>
##  1 M1        Benzene  0       1465   0   
##  2 M1        Benzene  0.00400 1298.  1.36
##  3 M1        Benzene  0.00801 1150.  2.56
##  4 M1        Benzene  0.0120  1019.  3.63
##  5 M1        Benzene  0.0160   903.  4.57
##  6 M1        Benzene  0.0200   800.  5.40
##  7 M1        Benzene  0.0240   708.  6.14
##  8 M1        Benzene  0.0280   628.  6.79
##  9 M1        Benzene  0.0320   556.  7.37
## 10 M1        Benzene  0.0360   493.  7.87
## # … with 27,990 more rows
```
…
```
## Joining, by = "enclosure"
```

```r
results_long
```

```
## # A tibble: 56,000 x 6
##    compound enclosure treatment    time compartment         mass
##    <chr>    <chr>     <fct>       <dbl> <chr>              <dbl>
##  1 Benzene  M1        179.8 L   0       Oil         8149.       
##  2 Benzene  M1        179.8 L   0       Water          0        
##  3 Benzene  M1        179.8 L   0.00400 Oil         7219.       
##  4 Benzene  M1        179.8 L   0.00400 Water          0.0000150
##  5 Benzene  M1        179.8 L   0.00801 Oil         6396.       
##  6 Benzene  M1        179.8 L   0.00801 Water          0.0000282
##  7 Benzene  M1        179.8 L   0.0120  Oil         5666.       
##  8 Benzene  M1        179.8 L   0.0120  Water          0.0000400
##  9 Benzene  M1        179.8 L   0.0160  Oil         5020.       
## 10 Benzene  M1        179.8 L   0.0160  Water          0.0000503
## # … with 55,990 more rows
```
…
